%YAML 1.1
%TAG !u! tag:unity3d.com,2011:
--- !u!114 &-8628553300967957132
MonoBehaviour:
  m_ObjectHideFlags: 0
  m_CorrespondingSourceObject: {fileID: 0}
  m_PrefabInstance: {fileID: 0}
  m_PrefabAsset: {fileID: 0}
  m_GameObject: {fileID: 0}
  m_Enabled: 1
  m_EditorHideFlags: 0
  m_Script: {fileID: 11500000, guid: 1b826785bd79bdb43a127d008f406406, type: 3}
  m_Name: 
  m_EditorClassIdentifier: 
  Description: 
  PercentageChance: 0
  Damage: 0
  Time: 0
--- !u!114 &-4747026711218382720
MonoBehaviour:
  m_ObjectHideFlags: 0
  m_CorrespondingSourceObject: {fileID: 0}
  m_PrefabInstance: {fileID: 0}
  m_PrefabAsset: {fileID: 0}
  m_GameObject: {fileID: 0}
  m_Enabled: 1
  m_EditorHideFlags: 0
  m_Script: {fileID: 11500000, guid: 674612dbe4e22e441942361b0bdb7803, type: 3}
  m_Name: 
  m_EditorClassIdentifier: 
  Description: 
  Modifier:
    ModifierMode: 1
    Stats:
      health: 0
      strength: 0
      defense: 0
      agility: 0
      elementalProtection: 00000000000000000000000000000000
      elementalBoosts: 00000000000000000000000000000000
--- !u!114 &-2280310378166567596
MonoBehaviour:
  m_ObjectHideFlags: 0
  m_CorrespondingSourceObject: {fileID: 0}
  m_PrefabInstance: {fileID: 0}
  m_PrefabAsset: {fileID: 0}
  m_GameObject: {fileID: 0}
  m_Enabled: 1
  m_EditorHideFlags: 0
  m_Script: {fileID: 11500000, guid: 978ecc3c7baaf484288042192519ea16, type: 3}
  m_Name: 
  m_EditorClassIdentifier: 
  Description: pyro
--- !u!114 &11400000
MonoBehaviour:
  m_ObjectHideFlags: 0
  m_CorrespondingSourceObject: {fileID: 0}
  m_PrefabInstance: {fileID: 0}
  m_PrefabAsset: {fileID: 0}
  m_GameObject: {fileID: 0}
  m_Enabled: 1
  m_EditorHideFlags: 0
  m_Script: {fileID: 11500000, guid: 0a96cf71494313b42b0e2459b8aa90d2, type: 3}
  m_Name: Excaliburn
  m_EditorClassIdentifier: 
  ItemName: Excaliburn
  ItemSprite: {fileID: 21300000, guid: 5d0f6ae4987d02846b822915a7301dfa, type: 3}
  Description: 
  WorldObjectPrefab: {fileID: 7022561314472484388, guid: e445cf79239d58a4a9b58b1d2ed99d63,
    type: 3}
  Slot: 666
  MinimumStrength: 0
  MinimumAgility: 0
  MinimumDefense: 0
  EquippedEffects:
  - {fileID: -4747026711218382720}
  HitSounds: []
  SwingSounds: []
  Stats:
    Speed: 10
    MinimumDamage: 10
    MaximumDamage: 10
    MaxRange: 1
  AttackEffects:
  - {fileID: -2280310378166567596}
  - {fileID: -8628553300967957132}
--- !u!114 &2839521018457706816
MonoBehaviour:
  m_ObjectHideFlags: 0
  m_CorrespondingSourceObject: {fileID: 0}
  m_PrefabInstance: {fileID: 0}
  m_PrefabAsset: {fileID: 0}
  m_GameObject: {fileID: 0}
  m_Enabled: 1
  m_EditorHideFlags: 0
  m_Script: {fileID: 11500000, guid: 1b826785bd79bdb43a127d008f406406, type: 3}
  m_Name: 
  m_EditorClassIdentifier: 
  Description: 
  PercentageChance: 0
  Damage: 0
  Time: 0
