[api-updater (non-obsolete-error-filter)] 11/10/2021 13:11:56 : Starting C:/Program Files/Unity/Hub/Editor/2020.3.20f1/Editor/Data/Tools/ScriptUpdater/APIUpdater.NonObsoleteApiUpdaterDetector.exe
[api-updater (non-obsolete-error-filter)] 
----------------------------------
jit/startup time      : 182,4382ms
moved types parse time: 63ms
candidates parse time : 1ms
C# parse time         : 240ms
candidates check time : 35ms
console write time    : 0ms

[api-updater (non-obsolete-error-filter)] 11/10/2021 13:13:06 : Starting C:/Program Files/Unity/Hub/Editor/2020.3.20f1/Editor/Data/Tools/ScriptUpdater/APIUpdater.NonObsoleteApiUpdaterDetector.exe
[api-updater (non-obsolete-error-filter)] Exception caught while loading types from C:\Users\vberche\Documents\UnityProjects\Project 2019.4\Library\ScriptAssemblies\Unity.TextMeshPro.Editor.dll (some types may not be loaded)
	Exception of type 'System.Reflection.ReflectionTypeLoadException' was thrown.
	  at (wrapper managed-to-native) System.Reflection.Assembly.GetTypes(System.Reflection.Assembly,bool)
  at System.Reflection.Assembly.GetTypes () [0x00000] in <695d1cc93cca45069c528c15c9fdd749>:0 
  at APIUpdater.NonObsoleteApiUpdaterDetector.ExtraInfoParser+<LoadTypesWithMovedFromAttributeAsync>d__3.MoveNext () [0x000c8] in <68bff7873e0e4aa69a14dfc30bebbe3e>:0 
	Could not load file or assembly 'UnityEditor.CoreModule, Version=0.0.0.0, Culture=neutral, PublicKeyToken=null' or one of its dependencies.

[api-updater (non-obsolete-error-filter)] 
----------------------------------
jit/startup time      : 90,8821ms
moved types parse time: 59ms
candidates parse time : 1ms
C# parse time         : 269ms
candidates check time : 40ms
console write time    : 0ms

[api-updater (non-obsolete-error-filter)] 11/10/2021 13:15:15 : Starting C:/Program Files/Unity/Hub/Editor/2020.3.20f1/Editor/Data/Tools/ScriptUpdater/APIUpdater.NonObsoleteApiUpdaterDetector.exe
[api-updater (non-obsolete-error-filter)] Exception caught while loading types from C:\Users\vberche\Documents\UnityProjects\Project 2019.4\Library\ScriptAssemblies\Unity.TextMeshPro.Editor.dll (some types may not be loaded)
	Exception of type 'System.Reflection.ReflectionTypeLoadException' was thrown.
	  at (wrapper managed-to-native) System.Reflection.Assembly.GetTypes(System.Reflection.Assembly,bool)
  at System.Reflection.Assembly.GetTypes () [0x00000] in <695d1cc93cca45069c528c15c9fdd749>:0 
  at APIUpdater.NonObsoleteApiUpdaterDetector.ExtraInfoParser+<LoadTypesWithMovedFromAttributeAsync>d__3.MoveNext () [0x000c8] in <68bff7873e0e4aa69a14dfc30bebbe3e>:0 
	Could not load file or assembly 'UnityEditor.CoreModule, Version=0.0.0.0, Culture=neutral, PublicKeyToken=null' or one of its dependencies.

[api-updater (non-obsolete-error-filter)] 
----------------------------------
jit/startup time      : 83,7176ms
moved types parse time: 50ms
candidates parse time : 1ms
C# parse time         : 232ms
candidates check time : 31ms
console write time    : 0ms

[api-updater (non-obsolete-error-filter)] 11/10/2021 13:57:21 : Starting C:/Program Files/Unity/Hub/Editor/2020.3.20f1/Editor/Data/Tools/ScriptUpdater/APIUpdater.NonObsoleteApiUpdaterDetector.exe
[api-updater (non-obsolete-error-filter)] 
----------------------------------
jit/startup time      : 104,1819ms
moved types parse time: 52ms
candidates parse time : 1ms
C# parse time         : 198ms
candidates check time : 32ms
console write time    : 0ms

[api-updater (non-obsolete-error-filter)] 11/10/2021 14:17:56 : Starting C:/Program Files/Unity/Hub/Editor/2020.3.20f1/Editor/Data/Tools/ScriptUpdater/APIUpdater.NonObsoleteApiUpdaterDetector.exe
[api-updater (non-obsolete-error-filter)] 
----------------------------------
jit/startup time      : 85,6272ms
moved types parse time: 50ms
candidates parse time : 1ms
C# parse time         : 194ms
candidates check time : 31ms
console write time    : 0ms

[api-updater (non-obsolete-error-filter)] 11/10/2021 14:18:21 : Starting C:/Program Files/Unity/Hub/Editor/2020.3.20f1/Editor/Data/Tools/ScriptUpdater/APIUpdater.NonObsoleteApiUpdaterDetector.exe
[api-updater (non-obsolete-error-filter)] 
----------------------------------
jit/startup time      : 84,156ms
moved types parse time: 49ms
candidates parse time : 1ms
C# parse time         : 173ms
candidates check time : 30ms
console write time    : 0ms

[api-updater (non-obsolete-error-filter)] 11/10/2021 14:22:39 : Starting C:/Program Files/Unity/Hub/Editor/2020.3.20f1/Editor/Data/Tools/ScriptUpdater/APIUpdater.NonObsoleteApiUpdaterDetector.exe
[api-updater (non-obsolete-error-filter)] 
----------------------------------
jit/startup time      : 88,2569ms
moved types parse time: 48ms
candidates parse time : 1ms
C# parse time         : 177ms
candidates check time : 29ms
console write time    : 0ms

[api-updater (non-obsolete-error-filter)] 11/10/2021 14:27:06 : Starting C:/Program Files/Unity/Hub/Editor/2020.3.20f1/Editor/Data/Tools/ScriptUpdater/APIUpdater.NonObsoleteApiUpdaterDetector.exe
[api-updater (non-obsolete-error-filter)] 
----------------------------------
jit/startup time      : 97,0665ms
moved types parse time: 53ms
candidates parse time : 1ms
C# parse time         : 210ms
candidates check time : 35ms
console write time    : 1ms

[api-updater (non-obsolete-error-filter)] 11/10/2021 14:31:38 : Starting C:/Program Files/Unity/Hub/Editor/2020.3.20f1/Editor/Data/Tools/ScriptUpdater/APIUpdater.NonObsoleteApiUpdaterDetector.exe
[api-updater (non-obsolete-error-filter)] 
----------------------------------
jit/startup time      : 86,2076ms
moved types parse time: 46ms
candidates parse time : 1ms
C# parse time         : 177ms
candidates check time : 28ms
console write time    : 0ms

[api-updater (non-obsolete-error-filter)] 11/10/2021 15:31:55 : Starting C:/Program Files/Unity/Hub/Editor/2020.3.20f1/Editor/Data/Tools/ScriptUpdater/APIUpdater.NonObsoleteApiUpdaterDetector.exe
[api-updater (non-obsolete-error-filter)] 
----------------------------------
jit/startup time      : 110,0134ms
moved types parse time: 49ms
candidates parse time : 1ms
C# parse time         : 172ms
candidates check time : 24ms
console write time    : 0ms

[api-updater (non-obsolete-error-filter)] 11/10/2021 15:33:10 : Starting C:/Program Files/Unity/Hub/Editor/2020.3.20f1/Editor/Data/Tools/ScriptUpdater/APIUpdater.NonObsoleteApiUpdaterDetector.exe
[api-updater (non-obsolete-error-filter)] 
----------------------------------
jit/startup time      : 94,0823ms
moved types parse time: 50ms
candidates parse time : 1ms
C# parse time         : 175ms
candidates check time : 25ms
console write time    : 0ms

[api-updater (non-obsolete-error-filter)] 11/10/2021 15:35:43 : Starting C:/Program Files/Unity/Hub/Editor/2020.3.20f1/Editor/Data/Tools/ScriptUpdater/APIUpdater.NonObsoleteApiUpdaterDetector.exe
[api-updater (non-obsolete-error-filter)] 
----------------------------------
jit/startup time      : 81,8944ms
moved types parse time: 52ms
candidates parse time : 1ms
C# parse time         : 172ms
candidates check time : 26ms
console write time    : 0ms

[api-updater (non-obsolete-error-filter)] 11/10/2021 15:36:26 : Starting C:/Program Files/Unity/Hub/Editor/2020.3.20f1/Editor/Data/Tools/ScriptUpdater/APIUpdater.NonObsoleteApiUpdaterDetector.exe
[api-updater (non-obsolete-error-filter)] 
----------------------------------
jit/startup time      : 78,1665ms
moved types parse time: 46ms
candidates parse time : 1ms
C# parse time         : 145ms
candidates check time : 24ms
console write time    : 0ms

[api-updater (non-obsolete-error-filter)] 11/10/2021 15:44:57 : Starting C:/Program Files/Unity/Hub/Editor/2020.3.20f1/Editor/Data/Tools/ScriptUpdater/APIUpdater.NonObsoleteApiUpdaterDetector.exe
[api-updater (non-obsolete-error-filter)] Exception caught while loading types from C:\Users\vberche\Documents\UnityProjects\Project 2019.4\Library\ScriptAssemblies\Unity.TextMeshPro.Editor.dll (some types may not be loaded)
	Exception of type 'System.Reflection.ReflectionTypeLoadException' was thrown.
	  at (wrapper managed-to-native) System.Reflection.Assembly.GetTypes(System.Reflection.Assembly,bool)
  at System.Reflection.Assembly.GetTypes () [0x00000] in <695d1cc93cca45069c528c15c9fdd749>:0 
  at APIUpdater.NonObsoleteApiUpdaterDetector.ExtraInfoParser+<LoadTypesWithMovedFromAttributeAsync>d__3.MoveNext () [0x000c8] in <68bff7873e0e4aa69a14dfc30bebbe3e>:0 
	Could not load file or assembly 'UnityEditor.CoreModule, Version=0.0.0.0, Culture=neutral, PublicKeyToken=null' or one of its dependencies.

[api-updater (non-obsolete-error-filter)] 
----------------------------------
jit/startup time      : 78,9027ms
moved types parse time: 45ms
candidates parse time : 1ms
C# parse time         : 221ms
candidates check time : 28ms
console write time    : 0ms

