%YAML 1.1
%TAG !u! tag:unity3d.com,2011:
--- !u!114 &11400000
MonoBehaviour:
  m_ObjectHideFlags: 0
  m_CorrespondingSourceObject: {fileID: 0}
  m_PrefabInstance: {fileID: 0}
  m_PrefabAsset: {fileID: 0}
  m_GameObject: {fileID: 0}
  m_Enabled: 1
  m_EditorHideFlags: 0
  m_Script: {fileID: 11500000, guid: 328cd29feea7c9e448f98552a0eebdd2, type: 3}
  m_Name: Potion
  m_EditorClassIdentifier: 
  ItemName: Health potion
  ItemSprite: {fileID: 21300000, guid: 3c9b1bd688b22324c9bc5eb12cc12aea, type: 3}
  Description: 
  WorldObjectPrefab: {fileID: 5898196935238221940, guid: 9be663f1d15d2a74395a9b0ff319d423,
    type: 3}
  UsageEffects:
  - {fileID: 1847641155959285472}
--- !u!114 &1847641155959285472
MonoBehaviour:
  m_ObjectHideFlags: 0
  m_CorrespondingSourceObject: {fileID: 0}
  m_PrefabInstance: {fileID: 0}
  m_PrefabAsset: {fileID: 0}
  m_GameObject: {fileID: 0}
  m_Enabled: 1
  m_EditorHideFlags: 0
  m_Script: {fileID: 11500000, guid: 7b57e08175cadd94f9e94886cba091a2, type: 3}
  m_Name: 
  m_EditorClassIdentifier: 
  Description: Donne 10 HP
  HealthAmount: 10
